EmailId,Company,FirstName
krepine@blinedigital.com,Bridgeline,Ms. Kathleen Repine
shamilton@blinedigital.com,Bridgeline,Mr. Steve Hamilton
shamilton61@gmail.com,Bridgeline,Mr. Steve Hamilton
avishwanath@blinedigital.com,Bridgeline,Ms. Ashwini Vishwanath
